[gd_scene load_steps=2 format=2]

[ext_resource path="res://Cannon.png" type="Texture" id=1]

[node name="Cannon" type="KinematicBody2D"]

[node name="Sprite" type="Sprite" parent="."]
texture = ExtResource( 1 )
